test-epicontacts-plotting • testEpiContPlot
…
#> 
#> /// Epidemiological Contacts //
#> 
#>   // class: epicontacts
#>   // 42 cases in linelist; 163 contacts;  directed 
#> 
#>   // linelist
#> Warning: `tbl_df()` was deprecated in dplyr 1.0.0.
#> ℹ Please use `tibble::as_tibble()` instead.
#> ℹ The deprecated feature was likely used in the epicontacts package.
#>   Please report the issue at <https://github.com/reconhub/epicontacts/issues>.
#> This warning is displayed once every 8 hours.
#> Call `lifecycle::last_lifecycle_warnings()` to see where this warning was
#> generated.
#> # A tibble: 42 × 10
#>    id    id.1  case_type gender   age onset_date hospitalisation_date death_date
#>    <chr> <chr> <chr>     <chr>  <int> <date>     <date>               <date>    
#>  1 1     Ashl… confirmed f         28 2023-01-01 NA                   NA        
#>  2 2     Brya… confirmed m         78 2023-01-01 NA                   NA        
#>  3 3     Oliv… probable  f         31 2023-01-02 NA                   2023-01-22
#>  4 4     Alex… probable  f         12 2023-01-02 2023-01-06           2023-01-13
#>  5 5     Luca… suspected m         80 2023-01-02 NA                   NA        
#>  6 6     Clai… confirmed f         44 2023-01-02 NA                   NA        
#>  7 7     Marj… suspected f         74 2023-01-03 NA                   2023-01-14
#>  8 8     Gabe… suspected m         26 2023-01-02 NA                   NA        
#>  9 9     Shaw… confirmed m         33 2023-01-02 NA                   NA        
#> 10 10    Zaka… suspected m          4 2023-01-02 2023-01-03           2023-01-23
#> # ℹ 32 more rows
#> # ℹ 2 more variables: date_first_contact <date>, date_last_contact <date>
#> 
#>   // contacts
#> 
#> # A tibble: 163 × 8
#>    from   to    cnt_age cnt_gender date_first_contact date_last_contact was_case
#>    <chr>  <chr>   <int> <chr>      <date>             <date>            <chr>   
#>  1 Ashle… Brya…      78 m          2023-01-04         2023-01-07        Y       
#>  2 Ashle… Thom…      37 m          2022-12-29         2023-01-01        N       
#>  3 Ashle… Jako…      14 m          2023-01-03         2023-01-06        N       
#>  4 Ashle… Clau…      27 f          2023-01-09         2023-01-10        N       
#>  5 Bryan… Oliv…      31 f          2022-12-30         2023-01-02        Y       
#>  6 Bryan… Alex…      12 f          2023-01-02         2023-01-05        Y       
#>  7 Bryan… Luca…      80 m          2023-01-06         2023-01-07        Y       
#>  8 Bryan… Shik…      77 m          2022-12-31         2023-01-06        N       
#>  9 Bryan… Anth…      83 m          2022-12-30         2023-01-03        N       
#> 10 Bryan… Mumt…       3 f          2023-01-05         2023-01-07        N       
#> # ℹ 153 more rows
#> # ℹ 1 more variable: status <chr>
…
